…
  Date this build of the artifact was generated

- md5:

  MD5 checksum of the built file

- changes:

  What changed in this build

## Examples

``` r
hitop_artifacts
#> # A tibble: 24 × 7
#>    file            instrument format instrument_version build_date md5   changes
#>    <chr>           <chr>      <chr>  <chr>              <date>     <chr> <chr>  
#>  1 hitopbr_A4.docx HiTOP-BR   docx_… 1.0                2026-07-16 f629… Versio…
#>  2 hitopbr_qualtr… HiTOP-BR   qualt… 1.0                2026-07-16 d3cc… Versio…
#>  3 hitopbr_redcap… HiTOP-BR   redcap 1.0                2026-07-16 93a4… Versio…
#>  4 hitopbr_US.docx HiTOP-BR   docx_… 1.0                2026-07-16 0e16… Versio…
#>  5 hitophsum_A4.d… HiTOP-HSUM docx_… 1.0                2026-07-16 621e… Versio…
#>  6 hitophsum_qual… HiTOP-HSUM qualt… 1.0                2026-07-16 fdd0… Rebuil…
#>  7 hitophsum_redc… HiTOP-HSUM redcap 1.0                2026-07-16 e308… Versio…
#>  8 hitophsum_US.d… HiTOP-HSUM docx_… 1.0                2026-07-16 116c… Versio…
#>  9 hitopsr_A4.docx HiTOP-SR   docx_… 1.0                2026-07-16 aec8… Versio…
#> 10 hitopsr_qualtr… HiTOP-SR   qualt… 1.0                2026-07-16 151f… Versio…
#> # ℹ 14 more rows
```
