Rank and list the top-\(n\) scales per row — rank_scales • hitop
…
If prefix is not NULL, the function removes the leading pattern
paste0("^", prefix) from each selected column name before
concatenation.

The output column is named by name. When append = TRUE it is
added after the existing columns of data (whose order is preserved);
when append = FALSE the result is a one-column tibble.

    Examples

# List each respondent's 3 highest-scoring HiTOP-BR scales
scored <- score_hitopbr(sim_hitopbr, items = 1:45, append = FALSE)
rank_scales(scored, scales = names(scored), prefix = "hbr_", top = 3,
            append = FALSE)
#> # A tibble: 100 × 1
#>    top_scales                                 
#>    <chr>                                      
#>  1 somatoform,antagonism,detachment           
#>  2 thoughtDisorder,disinhibition,internalizing
#>  3 detachment,somatoform,antagonism           
#>  4 antagonism,somatoform,detachment           
#>  5 externalizing,thoughtDisorder,antagonism   
#>  6 disinhibition,thoughtDisorder,somatoform   
#>  7 disinhibition,thoughtDisorder,externalizing
#>  8 antagonism,pFactor,externalizing           
#>  9 detachment,disinhibition,internalizing     
#> 10 somatoform,antagonism,thoughtDisorder      
#> # ℹ 90 more rows
…
