…
Alpha is computed by
[`calc_alpha()`](https://jmgirard.github.io/hitop/reference/calc_alpha.md)
(covariance-based, pairwise deletion) and omega by
[`calc_omega()`](https://jmgirard.github.io/hitop/reference/calc_omega.md)
(one-factor lavaan CFA, FIML). A scale whose estimate cannot be computed
(e.g. too few items or, for omega, a non-converging CFA or an
uninstalled lavaan) is returned as `NA` rather than aborting the call.

## Examples

``` r
# Facet-level reliability for the full PID-5 (alpha only)
reliability_pid5(sim_pid5, items = 1:220, version = "FULL", omega = FALSE)
#> # A tibble: 25 × 3
#>    scale                  nItems   alpha
#>    <chr>                   <int>   <dbl>
#>  1 Anhedonia                   8 -0.211 
#>  2 Suspiciousness              7 -0.211 
#>  3 Risk Taking                14 -0.0128
#>  4 Impulsivity                 6  0.141 
#>  5 Eccentricity               13  0.0554
#>  6 Distractibility             9 -0.154 
#>  7 Restricted Affectivity      7 -0.144 
#>  8 Submissiveness              4 -0.194 
#>  9 Withdrawal                 10 -0.0290
#> 10 Callousness                14  0.0147
#> # ℹ 15 more rows
```
