…
Alpha is computed by
[`calc_alpha()`](https://jmgirard.github.io/hitop/reference/calc_alpha.md)
(covariance-based, pairwise deletion) and omega by
[`calc_omega()`](https://jmgirard.github.io/hitop/reference/calc_omega.md)
(one-factor lavaan CFA, FIML). A scale whose estimate cannot be computed
(e.g. too few items or, for omega, a non-converging CFA or an
uninstalled lavaan) is returned as `NA` rather than aborting the call.

## Examples

``` r
# Per-scale alpha for the HiTOP-SR
reliability_hitopsr(sim_hitopsr, items = 1:405, omega = FALSE)
#> # A tibble: 76 × 3
#>    scale                nItems    alpha
#>    <chr>                 <int>    <dbl>
#>  1 Agoraphobia               5 -0.108  
#>  2 Antisocial Behavior       8 -0.136  
#>  3 Appetite Loss             3  0.00603
#>  4 Binge Eating              3  0.0509 
#>  5 Bodily Distress           6  0.0879 
#>  6 Body Dissatisfaction      4 -0.0891 
#>  7 Body Focus                5 -0.0282 
#>  8 Callousness               6 -0.347  
#>  9 Checking                  5 -0.247  
#> 10 Cleaning                  6  0.174  
#> # ℹ 66 more rows
```
