…
## Details

If either `alpha` or `omega` are `TRUE`, the function prints a per-scale
reliability summary. Only reliability columns that contain at least one
non-`NA` value are shown (the `scale` column is always shown).

## Examples

``` r
# Score all HiTOP-SR scales from the simulated data
score_hitopsr(sim_hitopsr, items = 1:405, append = FALSE)
#> # A tibble: 100 × 76
#>    hsr_agoraphobia hsr_antisocialBehavior hsr_appetiteLoss hsr_bingeEating
#>              <dbl>                  <dbl>            <dbl>           <dbl>
#>  1             2.8                   2.75             2.67            2.67
#>  2             2.6                   2.75             3               2.33
#>  3             2.4                   2.75             2.67            2.33
#>  4             2.4                   2.38             2               2.67
#>  5             2.6                   2.5              2               2.67
#>  6             2.4                   3.12             2.67            2.33
#>  7             2.6                   2.38             2.33            1.33
#>  8             3                     2.38             2.67            1.67
#>  9             2.4                   2.38             1.67            2.33
#> 10             2.4                   2                2.33            1.67
#> # ℹ 90 more rows
#> # ℹ 72 more variables: hsr_bodilyDistress <dbl>, hsr_bodyDissatisfaction <dbl>,
#> #   hsr_bodyFocus <dbl>, hsr_callousness <dbl>, hsr_checking <dbl>,
#> #   hsr_cleaning <dbl>, hsr_cognitiveProblems <dbl>,
#> #   hsr_conversionSymptoms <dbl>, hsr_counting <dbl>,
#> #   hsr_dietaryRestraint <dbl>, hsr_difficultiesReachingOrgasm <dbl>,
#> #   hsr_diseaseConviction <dbl>, hsr_dishonesty <dbl>, …
```
