…
Next, we can load the example dataset from the package using the
[`data()`](https://rdrr.io/r/utils/data.html) function. It is a large
tibble that contains a `participant` column with a unique identifier for
each participant, a `biosex` column indicating whether each participant
is “female” or “male”, and then 405 columns numbered `hitop001` to
`hitop405` containing each participant’s rating on each item of the
HiTOP-SR (on a numerical scale from 1 to 4).

``` r

data("ku_hitopsr")
ku_hitopsr
#> # A tibble: 411 × 407
#>    participant biosex hsr001 hsr002 hsr003 hsr004 hsr005 hsr006 hsr007 hsr008
#>    <chr>       <fct>   <dbl>  <dbl>  <dbl>  <dbl>  <dbl>  <dbl>  <dbl>  <dbl>
#>  1 P001        male        1      1      1      1      1      2      1      2
#>  2 P002        male        2      1      1      1      2      1      1      1
#>  3 P003        male        1      2      2      3      2      1      1      1
#>  4 P004        male        1      1      2      1      1      1      1      1
#>  5 P005        male        1      2      1      1      3      1      1      1
#>  6 P006        female      1      1      1      1      1      1      1      1
#>  7 P007        female      1      1      1      1      1      1      1      1
#>  8 P008        male        1      1      1      1      1      1      1      1
#>  9 P009        female      3      2      3      1      1      1      1      1
#> 10 P010        female      1      1      1      1      1      1      1      1
#> # ℹ 401 more rows
#> # ℹ 397 more variables: hsr009 <dbl>, hsr010 <dbl>, hsr011 <dbl>, hsr012 <dbl>,
#> #   hsr013 <dbl>, hsr014 <dbl>, hsr015 <dbl>, hsr016 <dbl>, hsr017 <dbl>,
#> #   hsr018 <dbl>, hsr019 <dbl>, hsr020 <dbl>, hsr021 <dbl>, hsr022 <dbl>,
#> #   hsr023 <dbl>, hsr024 <dbl>, hsr025 <dbl>, hsr026 <dbl>, hsr027 <dbl>,
#> #   hsr028 <dbl>, hsr029 <dbl>, hsr030 <dbl>, hsr031 <dbl>, hsr032 <dbl>,
#> #   hsr033 <dbl>, hsr034 <dbl>, hsr035 <dbl>, hsr036 <dbl>, hsr037 <dbl>, …
```
…
``` r

scores <- score_hitopsr(
  data = ku_hitopsr,
  items = 3:407,
  append = FALSE
)
scores
#> # A tibble: 411 × 76
#>    hsr_agoraphobia hsr_antisocialBehavior hsr_appetiteLoss hsr_bingeEating
#>              <dbl>                  <dbl>            <dbl>           <dbl>
#>  1             2                     1.12             1               1.67
#>  2             1.4                   1.75             1               2.67
#>  3             2.2                   2.12             2               2.33
#>  4             1.2                   1.25             1               2.33
#>  5             2                     1.88             2               2.33
#>  6             1                     1.25             1               1.33
#>  7             1                     1                1.67            1.67
#>  8             1.6                   1.62             1               1.33
#>  9             1.4                   1.25             1.67            2   
#> 10             1.2                   1.38             1               1   
#> # ℹ 401 more rows
#> # ℹ 72 more variables: hsr_bodilyDistress <dbl>, hsr_bodyDissatisfaction <dbl>,
#> #   hsr_bodyFocus <dbl>, hsr_callousness <dbl>, hsr_checking <dbl>,
#> #   hsr_cleaning <dbl>, hsr_cognitiveProblems <dbl>,
#> #   hsr_conversionSymptoms <dbl>, hsr_counting <dbl>,
#> #   hsr_dietaryRestraint <dbl>, hsr_difficultiesReachingOrgasm <dbl>,
#> #   hsr_diseaseConviction <dbl>, hsr_dishonesty <dbl>, …
```
## Appending

If I had instead set `append = TRUE` (or left it off, as that is the
default), we would get back the `ku_hitoppro` tibble with the scale
scores added to the end as extra columns. Notice below how we now have
483 columns instead of 407.

``` r

scores <- score_hitopsr(
  data = ku_hitopsr,
  items = 3:407
)
scores
#> # A tibble: 411 × 483
#>    participant biosex hsr001 hsr002 hsr003 hsr004 hsr005 hsr006 hsr007 hsr008
#>    <chr>       <fct>   <dbl>  <dbl>  <dbl>  <dbl>  <dbl>  <dbl>  <dbl>  <dbl>
#>  1 P001        male        1      1      1      1      1      2      1      2
#>  2 P002        male        2      1      1      1      2      1      1      1
#>  3 P003        male        1      2      2      3      2      1      1      1
#>  4 P004        male        1      1      2      1      1      1      1      1
#>  5 P005        male        1      2      1      1      3      1      1      1
#>  6 P006        female      1      1      1      1      1      1      1      1
#>  7 P007        female      1      1      1      1      1      1      1      1
#>  8 P008        male        1      1      1      1      1      1      1      1
#>  9 P009        female      3      2      3      1      1      1      1      1
#> 10 P010        female      1      1      1      1      1      1      1      1
#> # ℹ 401 more rows
#> # ℹ 473 more variables: hsr009 <dbl>, hsr010 <dbl>, hsr011 <dbl>, hsr012 <dbl>,
#> #   hsr013 <dbl>, hsr014 <dbl>, hsr015 <dbl>, hsr016 <dbl>, hsr017 <dbl>,
#> #   hsr018 <dbl>, hsr019 <dbl>, hsr020 <dbl>, hsr021 <dbl>, hsr022 <dbl>,
#> #   hsr023 <dbl>, hsr024 <dbl>, hsr025 <dbl>, hsr026 <dbl>, hsr027 <dbl>,
#> #   hsr028 <dbl>, hsr029 <dbl>, hsr030 <dbl>, hsr031 <dbl>, hsr032 <dbl>,
#> #   hsr033 <dbl>, hsr034 <dbl>, hsr035 <dbl>, hsr036 <dbl>, hsr037 <dbl>, …
```
…
``` r

scores <- score_hitopsr(
  data = ku_hitopsr,
  items = sprintf("hsr%03d", 1:405),
  append = FALSE
)
scores
#> # A tibble: 411 × 76
#>    hsr_agoraphobia hsr_antisocialBehavior hsr_appetiteLoss hsr_bingeEating
#>              <dbl>                  <dbl>            <dbl>           <dbl>
#>  1             2                     1.12             1               1.67
#>  2             1.4                   1.75             1               2.67
#>  3             2.2                   2.12             2               2.33
#>  4             1.2                   1.25             1               2.33
#>  5             2                     1.88             2               2.33
#>  6             1                     1.25             1               1.33
#>  7             1                     1                1.67            1.67
#>  8             1.6                   1.62             1               1.33
#>  9             1.4                   1.25             1.67            2   
#> 10             1.2                   1.38             1               1   
#> # ℹ 401 more rows
#> # ℹ 72 more variables: hsr_bodilyDistress <dbl>, hsr_bodyDissatisfaction <dbl>,
#> #   hsr_bodyFocus <dbl>, hsr_callousness <dbl>, hsr_checking <dbl>,
#> #   hsr_cleaning <dbl>, hsr_cognitiveProblems <dbl>,
#> #   hsr_conversionSymptoms <dbl>, hsr_counting <dbl>,
#> #   hsr_dietaryRestraint <dbl>, hsr_difficultiesReachingOrgasm <dbl>,
#> #   hsr_diseaseConviction <dbl>, hsr_dishonesty <dbl>, …
```
…
Also note that each scale column has the prefix “hsr\_” in its name. You
can change the prefix (e.g., setting it to `"hitop_"`) or even turn it
off (e.g., setting it to `""`) using the `prefix` argument.

``` r

scores <- score_hitopsr(
  data = ku_hitopsr,
  items = sprintf("hsr%03d", 1:405),
  prefix = "hitop_",
  append = FALSE
)
scores
#> # A tibble: 411 × 76
#>    hitop_agoraphobia hitop_antisocialBeha…¹ hitop_appetiteLoss hitop_bingeEating
#>                <dbl>                  <dbl>              <dbl>             <dbl>
#>  1               2                     1.12               1                 1.67
#>  2               1.4                   1.75               1                 2.67
#>  3               2.2                   2.12               2                 2.33
#>  4               1.2                   1.25               1                 2.33
#>  5               2                     1.88               2                 2.33
#>  6               1                     1.25               1                 1.33
#>  7               1                     1                  1.67              1.67
#>  8               1.6                   1.62               1                 1.33
#>  9               1.4                   1.25               1.67              2   
#> 10               1.2                   1.38               1                 1   
#> # ℹ 401 more rows
#> # ℹ abbreviated name: ¹​hitop_antisocialBehavior
#> # ℹ 72 more variables: hitop_bodilyDistress <dbl>,
#> #   hitop_bodyDissatisfaction <dbl>, hitop_bodyFocus <dbl>,
#> #   hitop_callousness <dbl>, hitop_checking <dbl>, hitop_cleaning <dbl>,
#> #   hitop_cognitiveProblems <dbl>, hitop_conversionSymptoms <dbl>,
#> #   hitop_counting <dbl>, hitop_dietaryRestraint <dbl>, …
```
…
``` r

scores <- score_hitopsr(
  data = ku_hitopsr,
  items = sprintf("hsr%03d", 1:405),
  calc_se = TRUE,
  append = FALSE
)
scores
#> # A tibble: 411 × 152
#>    hsr_agoraphobia hsr_antisocialBehavior hsr_appetiteLoss hsr_bingeEating
#>              <dbl>                  <dbl>            <dbl>           <dbl>
#>  1             2                     1.12             1               1.67
#>  2             1.4                   1.75             1               2.67
#>  3             2.2                   2.12             2               2.33
#>  4             1.2                   1.25             1               2.33
#>  5             2                     1.88             2               2.33
#>  6             1                     1.25             1               1.33
#>  7             1                     1                1.67            1.67
#>  8             1.6                   1.62             1               1.33
#>  9             1.4                   1.25             1.67            2   
#> 10             1.2                   1.38             1               1   
#> # ℹ 401 more rows
#> # ℹ 148 more variables: hsr_bodilyDistress <dbl>,
#> #   hsr_bodyDissatisfaction <dbl>, hsr_bodyFocus <dbl>, hsr_callousness <dbl>,
#> #   hsr_checking <dbl>, hsr_cleaning <dbl>, hsr_cognitiveProblems <dbl>,
#> #   hsr_conversionSymptoms <dbl>, hsr_counting <dbl>,
#> #   hsr_dietaryRestraint <dbl>, hsr_difficultiesReachingOrgasm <dbl>,
#> #   hsr_diseaseConviction <dbl>, hsr_dishonesty <dbl>, …
```
…
We estimate reliability with the
[`reliability_hitopsr()`](https://jmgirard.github.io/hitop/reference/reliability_hitopsr.md)
function, which returns a tibble with one row per scale and columns for
the number of items and the requested coefficients. By default it
computes both `alpha` and `omega`; for the latter, we will need the
**lavaan** package installed (set `omega = FALSE` to skip it).

``` r

reliability_hitopsr(
  data = ku_hitopsr,
  items = sprintf("hsr%03d", 1:405)
)
#> # A tibble: 76 × 4
#>    scale                nItems alpha  omega
#>    <chr>                 <int> <dbl>  <dbl>
#>  1 Agoraphobia               5 0.419  0.431
#>  2 Antisocial Behavior       8 0.545  0.553
#>  3 Appetite Loss             3 0.367 NA    
#>  4 Binge Eating              3 0.110  0.218
#>  5 Bodily Distress           6 0.396  0.469
#>  6 Body Dissatisfaction      4 0.294 NA    
#>  7 Body Focus                5 0.394  0.436
#>  8 Callousness               6 0.482  0.490
#>  9 Checking                  5 0.601  0.605
#> 10 Cleaning                  6 0.480  0.526
#> # ℹ 66 more rows
```
…
